graph {
node [shape="box" style="filled"]
a5 -- a51 -- a52 -- a53 -- a54 -- {a55 a56}
a55 -- a551
a56 -- a561
{a561 a551} -- {a57 a58}
a5 [label="PRECISAMOS FALAR SOBRE BOB" color="yellow"]
a51 [label="Suggesting friends using the implicit social graph"]
a52 [label="Usados no Gmail"]
a53 [label="Leva em conta o\n grafo implícito das\n interações entre\n usuários e contatos"]
a54 [label="Friend Suggestion"]
a55 [label="Semente: Grupo dos destinatários\n e um contato"]
a551 [label="Retorno: Relação do contato\n com o grupo"]
a56 [label="Semente: Grupo de contatos"]
a561 [label="Retorno: Sugestão de contato"]
a57 [label="Got the wrong Bob?"]
a58 [label="Don't forget Bob"]
}
