graph {
0 [label=0];
0 -- 2 [label=0];
2 -- 4 [label=0];
4 [label=" 8246182189736871317"];
4 [shape=box]
2 -- 6 [label=1];
6 [label=" 8246182189739403127"];
6 [shape=box]
2 [label=" 8246182189739403127"];
2 [shape=box]
0 -- 8 [label=1];
8 -- 10 [label=0];
10 [label=" 8246182189740839567"];
10 [shape=box]
8 -- 12 [label=1];
12 [label=" 8246182189746684090"];
12 [shape=box]
8 [label=" 8246182189746684090"];
8 [shape=box]
0 -- 14 [label=2];
14 -- 16 [label=0];
16 [label=" 8246182189746768434"];
16 [shape=box]
14 -- 18 [label=1];
18 [label=" 8246507386420344261"];
18 [shape=box]
14 -- 20 [label=2];
20 [label=" 8246507386420344263"];
20 [shape=box]
14 -- 22 [label=3];
22 [label=" 8246507386420344278"];
22 [shape=box]
14 [label=" 8246507386420344261 » 8246507386420344263 » 8246507386420344278"];
14 [shape=box]
0 [label=" 8246182189740839567 » 8246182189746768434"];
0 [shape=box]
}
