\begin{thebibliography}{1}

\bibitem{alexanderson2006cover}
Gerald Alexanderson.
\newblock About the cover: Euler and k{\"o}nigsberg’s bridges: A historical
  view.
\newblock {\em Bulletin of the american mathematical society}, 43(4):567--573,
  2006.

\bibitem{chen2009make}
Jilin Chen, Werner Geyer, Casey Dugan, Michael Muller, and Ido Guy.
\newblock Make new friends, but keep the old: recommending people on social
  networking sites.
\newblock In {\em Proceedings of the SIGCHI Conference on Human Factors in
  Computing Systems}, pages 201--210. ACM, 2009.

\bibitem{agbfrsuga}
Nitai~B Silva, Ren Tsang, George~DC Cavalcanti, and Jyh Tsang.
\newblock A graph-based friend recommendation system using genetic algorithm.
\newblock In {\em IEEE Congress on Evolutionary Computation}, pages 1--7. IEEE,
  2010.

\bibitem{yin2010linkrec}
Zhijun Yin, Manish Gupta, Tim Weninger, and Jiawei Han.
\newblock Linkrec: a unified framework for link recommendation with user
  attributes and graph structure.
\newblock In {\em Proceedings of the 19th international conference on World
  wide web}, pages 1211--1212. ACM, 2010.

\bibitem{roth2010suggesting}
Maayan Roth, Assaf Ben-David, David Deutscher, Guy Flysher, Ilan Horn, Ari
  Leichtberg, Naty Leiser, Yossi Matias, and Ron Merom.
\newblock Suggesting friends using the implicit social graph.
\newblock In {\em Proceedings of the 16th ACM SIGKDD international conference
  on Knowledge discovery and data mining}, pages 233--242. ACM, 2010.

\bibitem{yan2012tweet}
Rui Yan, Mirella Lapata, and Xiaoming Li.
\newblock Tweet recommendation with graph co-ranking.
\newblock In {\em Proceedings of the 50th Annual Meeting of the Association for
  Computational Linguistics: Long Papers-Volume 1}, pages 516--525. Association
  for Computational Linguistics, 2012.

\end{thebibliography}
